{
  "name": "LibreELEC_RPi",
  "version": "8.2.1",
  "release_date": "2017-11-20",
  "kernel": "4.9.59",
  "description": "LibreELEC is a fast and user-friendly Kodi Entertainment Center distribution.",
  "username": "root",
  "password": "libreelec",
  "supported_models": ["Pi Model","Pi Compute Module","Pi Zero"],
  "supported_hex_revisions": "2,3,4,5,6,7,8,9,d,e,f,10,11,12,14,19,0092,0093"
}
